Internals: object structure & writing custom extensions
…
library(tibble)
#> 
#> Attaching package: 'tibble'
#> The following objects are masked from 'package:netify':
#> 
#>     char, num
library(broom)

# one row per dyad (long edge frame, wrapped in a tibble)
as_tibble(net)
#> # A tibble: 22,952 × 9
#>    from  to    time  verbCoop matlCoop from_id to_id i_polity2_from i_polity2_to
#>    <chr> <chr> <chr>    <dbl>    <dbl> <chr>   <chr>          <int>        <int>
#>  1 Afgh… Alba… 1            0        1 Afghan… Alba…             NA            9
#>  2 Afgh… Alge… 1            0        0 Afghan… Alge…             NA            2
#>  3 Afgh… Ango… 1            0        0 Afghan… Ango…             NA           -2
#>  4 Afgh… Arge… 1            1        0 Afghan… Arge…             NA            8
#>  5 Afgh… Arme… 1            7        2 Afghan… Arme…             NA            5
#>  6 Afgh… Aust… 1          125        0 Afghan… Aust…             NA           10
#>  7 Afgh… Aust… 1            1        0 Afghan… Aust…             NA           10
#>  8 Afgh… Azer… 1            7        0 Afghan… Azer…             NA           -7
#>  9 Afgh… Bahr… 1            3        0 Afghan… Bahr…             NA           -5
#> 10 Afgh… Bang… 1           14        0 Afghan… Bang…             NA            5
#> # ℹ 22,942 more rows
…
