Internals: object structure & writing custom extensions • netify
…
If tibble and broom are installed, three
tidyverse-flavored entry points are available.
as_tibble.netify is registered against
tibble::as_tibble via .onLoad, so
tibble must be installed to use the unprefixed call;
tidy() and glance() are likewise registered
against the broom generics.

library(tibble)
library(broom)

# one row per dyad (long edge frame, wrapped in a tibble)
as_tibble(net)
#> # A tibble: 22,952 × 6
#>    from        to         verbCoop matlCoop i_polity2_from i_polity2_to
#>    <chr>       <chr>         <dbl>    <dbl>          <int>        <int>
#>  1 Afghanistan Albania           0        1             NA            9
#>  2 Afghanistan Algeria           0        0             NA            2
#>  3 Afghanistan Angola            0        0             NA           -2
#>  4 Afghanistan Argentina         1        0             NA            8
#>  5 Afghanistan Armenia           7        2             NA            5
#>  6 Afghanistan Australia       125        0             NA           10
#>  7 Afghanistan Austria           1        0             NA           10
#>  8 Afghanistan Azerbaijan        7        0             NA           -7
#>  9 Afghanistan Bahrain           3        0             NA           -5
#> 10 Afghanistan Bangladesh       14        0             NA            5
#> # ℹ 22,942 more rows
…
